<!-- Generator: Adobe Illustrator 19.2.1, SVG Export Plug-In  -->
<svg version="1.1"
	 xmlns="http://www.w3.org/2000/svg" xmlns:xlink="http://www.w3.org/1999/xlink" xmlns:a="http://ns.adobe.com/AdobeSVGViewerExtensions/3.0/"
	 x="0px" y="0px" width="89.4px" height="89.4px" viewBox="0 0 89.4 89.4" style="enable-background:new 0 0 89.4 89.4;"
	 xml:space="preserve">
<style type="text/css">
	.st0{opacity:0.6;}
	.st1{fill:#F9D478;}
</style>
<defs>
</defs>
<g>
	<g class="st0">
		<circle class="st1" cx="44.7" cy="44.7" r="44.7"/>
	</g>
</g>
</svg>